Tidyr
…
Problems with this: -y axis name is wrong -colours must be specified manually -we miss an association between colours and names

Tidyr based solution

long_eustock <-
  eustock |>
  pivot_longer(-time, names_to = "Stock Index", values_to = "Value")
long_eustock

# A tibble: 7,440 × 3
    time `Stock Index` Value
   <int> <chr>         <dbl>
 1     1 DAX           1629.
 2     1 SMI           1678.
 3     1 CAC           1773.
 4     1 FTSE          2444.
 5     2 DAX           1614.
 6     2 SMI           1688.
 7     2 CAC           1750.
 8     2 FTSE          2460.
 9     3 DAX           1607.
10     3 SMI           1679.
# ℹ 7,430 more rows
…
